<!-- <body>
  <header class="header">
      <ul class="nav justify-content-around pt-3">
        <li class="nav-item">
          <a class="nav-link text-dark" href="#">Главная</a>
        </li>
        <li class="nav-item">
          <a class="nav-link text-dark" href="#about">О себе</a>
        </li>
        <li class="nav-item">
          <a class="nav-link text-dark" href="#">Образование</a>
        </li>
        <li class="nav-item">
          <a class="nav-link text-dark" href="#Contacts">Контакты</a>
        </li>
      </ul>         
  </header>
  <main>
    <div class="container">
      <p class="text">front-end.web(developer)_</p>
    </div>    
  </main>
  <section class="about">
    <h2 id="about" class="">О себе</h2>
  </section>

  </div>
<script src="https://cdn.jsdelivr.net/npm/bootstrap@5.0.1/dist/js/bootstrap.bundle.min.js" integrity="sha384-gtEjrD/SeCtmISkJkNUaaKMoLD0//ElJ19smozuHV6z3Iehds+3Ulb9Bn9Plx0x4" crossorigin="anonymous"></script>
</body> -->

/* @import url('https://fonts.googleapis.com/css2?family=DotGothic16&family=Montserrat:wght@100&display=swap');
@font-face {
  font-family:'DotGothic16', sans-serif; 
  src: url(/fonts/DotGothic16-Regular.ttf);
}

.text{
  margin-top: 200px;
  font-size: 45px;
  font-family:'DotGothic16', sans-serif; 
  text-align: center;
}

li:hover{
  text-decoration: underline;  
 }

 #about{
  margin-top: 100px;
 }

 

  */